{
 "actions": [],
 "autoname": "hash",
 "creation": "2013-05-24 19:29:10",
 "doctype": "DocType",
 "document_type": "Document",
 "editable_grid": 1,
 "engine": "InnoDB",
 "field_order": [
  "barcode",
  "section_break_2",
  "item_code",
  "supplier_part_no",
  "column_break_2",
  "item_name",
  "section_break_4",
  "description",
  "item_group",
  "brand",
  "image_section",
  "image",
  "image_view",
  "manufacture_details",
  "manufacturer",
  "column_break_16",
  "manufacturer_part_no",
  "received_and_accepted",
  "received_qty",
  "qty",
  "rejected_qty",
  "col_break2",
  "uom",
  "stock_uom",
  "conversion_factor",
  "retain_sample",
  "sample_quantity",
  "rate_and_amount",
  "price_list_rate",
  "discount_percentage",
  "discount_amount",
  "col_break3",
  "base_price_list_rate",
  "sec_break1",
  "rate",
  "amount",
  "col_break4",
  "base_rate",
  "base_amount",
  "pricing_rules",
  "is_free_item",
  "section_break_29",
  "net_rate",
  "net_amount",
  "item_tax_template",
  "column_break_32",
  "base_net_rate",
  "base_net_amount",
  "valuation_rate",
  "item_tax_amount",
  "rm_supp_cost",
  "landed_cost_voucher_amount",
  "billed_amt",
  "item_weight_details",
  "weight_per_unit",
  "total_weight",
  "column_break_41",
  "weight_uom",
  "warehouse_and_reference",
  "warehouse",
  "rejected_warehouse",
  "from_warehouse",
  "purchase_order",
  "material_request",
  "column_break_40",
  "is_fixed_asset",
  "asset_location",
  "asset_category",
  "schedule_date",
  "quality_inspection",
  "stock_qty",
  "purchase_order_item",
  "material_request_item",
  "section_break_45",
  "allow_zero_valuation_rate",
  "bom",
  "col_break5",
  "serial_no",
  "batch_no",
  "column_break_48",
  "rejected_serial_no",
  "expense_account",
  "include_exploded_items",
  "item_tax_rate",
  "accounting_dimensions_section",
  "project",
  "dimension_col_break",
  "cost_center",
  "section_break_80",
  "page_break"
 ],
 "fields": [
  {
   "fieldname": "barcode",
   "fieldtype": "Data",
   "label": "Barcode"
  },
  {
   "fieldname": "section_break_2",
   "fieldtype": "Section Break"
  },
  {
   "bold": 1,
   "columns": 3,
   "fieldname": "item_code",
   "fieldtype": "Link",
   "in_global_search": 1,
   "in_list_view": 1,
   "label": "Item Code",
   "oldfieldname": "item_code",
   "oldfieldtype": "Link",
   "options": "Item",
   "print_width": "100px",
   "reqd": 1,
   "search_index": 1,
   "width": "100px"
  },
  {
   "fieldname": "supplier_part_no",
   "fieldtype": "Data",
   "hidden": 1,
   "label": "Supplier Part Number",
   "read_only": 1
  },
  {
   "fieldname": "column_break_2",
   "fieldtype": "Column Break"
  },
  {
   "fieldname": "item_name",
   "fieldtype": "Data",
   "in_global_search": 1,
   "label": "Item Name",
   "oldfieldname": "item_name",
   "oldfieldtype": "Data",
   "print_hide": 1,
   "reqd": 1
  },
  {
   "collapsible": 1,
   "fieldname": "section_break_4",
   "fieldtype": "Section Break",
   "label": "Description"
  },
  {
   "fieldname": "description",
   "fieldtype": "Text Editor",
   "label": "Description",
   "oldfieldname": "description",
   "oldfieldtype": "Text",
   "print_width": "300px",
   "reqd": 1,
   "translatable": 1,
   "width": "300px"
  },
  {
   "fieldname": "image",
   "fieldtype": "Attach",
   "hidden": 1,
   "label": "Image"
  },
  {
   "fieldname": "image_view",
   "fieldtype": "Image",
   "label": "Image View",
   "options": "image",
   "print_hide": 1
  },
  {
   "fieldname": "received_and_accepted",
   "fieldtype": "Section Break",
   "label": "Received and Accepted"
  },
  {
   "bold": 1,
   "fieldname": "received_qty",
   "fieldtype": "Float",
   "label": "Received Quantity",
   "oldfieldname": "received_qty",
   "oldfieldtype": "Currency",
   "print_hide": 1,
   "print_width": "100px",
   "reqd": 1,
   "width": "100px"
  },
  {
   "columns": 2,
   "fieldname": "qty",
   "fieldtype": "Float",
   "in_list_view": 1,
   "label": "Accepted Quantity",
   "oldfieldname": "qty",
   "oldfieldtype": "Currency",
   "print_width": "100px",
   "width": "100px"
  },
  {
   "fieldname": "rejected_qty",
   "fieldtype": "Float",
   "label": "Rejected Quantity",
   "oldfieldname": "rejected_qty",
   "oldfieldtype": "Currency",
   "print_hide": 1,
   "print_width": "100px",
   "width": "100px"
  },
  {
   "fieldname": "col_break2",
   "fieldtype": "Column Break",
   "print_hide": 1
  },
  {
   "fieldname": "uom",
   "fieldtype": "Link",
   "label": "UOM",
   "oldfieldname": "uom",
   "oldfieldtype": "Link",
   "options": "UOM",
   "print_width": "100px",
   "reqd": 1,
   "width": "100px"
  },
  {
   "fieldname": "stock_uom",
   "fieldtype": "Link",
   "label": "Stock UOM",
   "oldfieldname": "stock_uom",
   "oldfieldtype": "Data",
   "options": "UOM",
   "print_hide": 1,
   "print_width": "100px",
   "read_only": 1,
   "reqd": 1,
   "width": "100px"
  },
  {
   "fieldname": "conversion_factor",
   "fieldtype": "Float",
   "label": "Conversion Factor",
   "oldfieldname": "conversion_factor",
   "oldfieldtype": "Currency",
   "print_hide": 1,
   "print_width": "100px",
   "reqd": 1,
   "width": "100px"
  },
  {
   "default": "0",
   "fetch_from": "item_code.retain_sample",
   "fieldname": "retain_sample",
   "fieldtype": "Check",
   "label": "Retain Sample",
   "read_only": 1
  },
  {
   "depends_on": "retain_sample",
   "fetch_from": "item_code.sample_quantity",
   "fieldname": "sample_quantity",
   "fieldtype": "Int",
   "label": "Sample Quantity"
  },
  {
   "fieldname": "rate_and_amount",
   "fieldtype": "Section Break",
   "label": "Rate and Amount"
  },
  {
   "fieldname": "price_list_rate",
   "fieldtype": "Currency",
   "label": "Price List Rate",
   "options": "currency",
   "print_hide": 1
  },
  {
   "depends_on": "price_list_rate",
   "fieldname": "discount_percentage",
   "fieldtype": "Percent",
   "label": "Discount on Price List Rate (%)",
   "print_hide": 1
  },
  {
   "depends_on": "price_list_rate",
   "fieldname": "discount_amount",
   "fieldtype": "Currency",
   "label": "Discount Amount",
   "options": "currency"
  },
  {
   "fieldname": "col_break3",
   "fieldtype": "Column Break"
  },
  {
   "fieldname": "base_price_list_rate",
   "fieldtype": "Currency",
   "label": "Price List Rate (Company Currency)",
   "options": "Company:company:default_currency",
   "print_hide": 1,
   "read_only": 1
  },
  {
   "fieldname": "sec_break1",
   "fieldtype": "Section Break"
  },
  {
   "bold": 1,
   "columns": 3,
   "fieldname": "rate",
   "fieldtype": "Currency",
   "in_list_view": 1,
   "label": "Rate",
   "oldfieldname": "import_rate",
   "oldfieldtype": "Currency",
   "options": "currency",
   "print_width": "100px",
   "width": "100px"
  },
  {
   "fieldname": "amount",
   "fieldtype": "Currency",
   "in_list_view": 1,
   "label": "Amount",
   "oldfieldname": "import_amount",
   "oldfieldtype": "Currency",
   "options": "currency",
   "read_only": 1
  },
  {
   "fieldname": "col_break4",
   "fieldtype": "Column Break"
  },
  {
   "fieldname": "base_rate",
   "fieldtype": "Currency",
   "label": "Rate (Company Currency)",
   "oldfieldname": "purchase_rate",
   "oldfieldtype": "Currency",
   "options": "Company:company:default_currency",
   "print_hide": 1,
   "print_width": "100px",
   "read_only": 1,
   "reqd": 1,
   "width": "100px"
  },
  {
   "fieldname": "base_amount",
   "fieldtype": "Currency",
   "label": "Amount (Company Currency)",
   "oldfieldname": "amount",
   "oldfieldtype": "Currency",
   "options": "Company:company:default_currency",
   "print_hide": 1,
   "print_width": "100px",
   "read_only": 1,
   "width": "100px"
  },
  {
   "fieldname": "pricing_rules",
   "fieldtype": "Small Text",
   "hidden": 1,
   "label": "Pricing Rules",
   "print_hide": 1,
   "read_only": 1
  },
  {
   "default": "0",
   "fieldname": "is_free_item",
   "fieldtype": "Check",
   "label": "Is Free Item",
   "print_hide": 1,
   "read_only": 1
  },
  {
   "fieldname": "section_break_29",
   "fieldtype": "Section Break"
  },
  {
   "fieldname": "net_rate",
   "fieldtype": "Currency",
   "label": "Net Rate",
   "options": "currency",
   "print_hide": 1,
   "read_only": 1
  },
  {
   "columns": 2,
   "fieldname": "net_amount",
   "fieldtype": "Currency",
   "in_list_view": 1,
   "label": "Net Amount",
   "options": "currency",
   "print_hide": 1,
   "read_only": 1
  },
  {
   "fieldname": "column_break_32",
   "fieldtype": "Column Break"
  },
  {
   "fieldname": "base_net_rate",
   "fieldtype": "Currency",
   "label": "Net Rate (Company Currency)",
   "options": "Company:company:default_currency",
   "print_hide": 1,
   "read_only": 1
  },
  {
   "fieldname": "base_net_amount",
   "fieldtype": "Currency",
   "label": "Net Amount (Company Currency)",
   "options": "Company:company:default_currency",
   "print_hide": 1,
   "read_only": 1
  },
  {
   "collapsible": 1,
   "fieldname": "item_weight_details",
   "fieldtype": "Section Break",
   "label": "Item Weight Details"
  },
  {
   "fieldname": "weight_per_unit",
   "fieldtype": "Float",
   "label": "Weight Per Unit"
  },
  {
   "fieldname": "total_weight",
   "fieldtype": "Float",
   "label": "Total Weight",
   "read_only": 1
  },
  {
   "fieldname": "column_break_41",
   "fieldtype": "Column Break"
  },
  {
   "fieldname": "weight_uom",
   "fieldtype": "Link",
   "label": "Weight UOM",
   "options": "UOM"
  },
  {
   "fieldname": "warehouse_and_reference",
   "fieldtype": "Section Break",
   "label": "Warehouse and Reference"
  },
  {
   "bold": 1,
   "fieldname": "warehouse",
   "fieldtype": "Link",
   "in_list_view": 1,
   "label": "Accepted Warehouse",
   "oldfieldname": "warehouse",
   "oldfieldtype": "Link",
   "options": "Warehouse",
   "print_hide": 1,
   "print_width": "100px",
   "width": "100px"
  },
  {
   "fieldname": "rejected_warehouse",
   "fieldtype": "Link",
   "label": "Rejected Warehouse",
   "no_copy": 1,
   "oldfieldname": "rejected_warehouse",
   "oldfieldtype": "Link",
   "options": "Warehouse",
   "print_hide": 1,
   "print_width": "100px",
   "width": "100px"
  },
  {
   "depends_on": "eval:!doc.__islocal",
   "fieldname": "quality_inspection",
   "fieldtype": "Link",
   "label": "Quality Inspection",
   "no_copy": 1,
   "oldfieldname": "qa_no",
   "oldfieldtype": "Link",
   "options": "Quality Inspection",
   "print_hide": 1
  },
  {
   "fieldname": "column_break_40",
   "fieldtype": "Column Break"
  },
  {
   "default": "0",
   "fieldname": "is_fixed_asset",
   "fieldtype": "Check",
   "hidden": 1,
   "label": "Is Fixed Asset",
   "no_copy": 1,
   "print_hide": 1,
   "read_only": 1
  },
  {
   "fieldname": "purchase_order",
   "fieldtype": "Link",
   "label": "Purchase Order",
   "no_copy": 1,
   "oldfieldname": "prevdoc_docname",
   "oldfieldtype": "Link",
   "options": "Purchase Order",
   "print_hide": 1,
   "print_width": "150px",
   "read_only": 1,
   "search_index": 1,
   "width": "150px"
  },
  {
   "fieldname": "schedule_date",
   "fieldtype": "Date",
   "label": "Required By",
   "oldfieldname": "schedule_date",
   "oldfieldtype": "Date",
   "print_hide": 1,
   "read_only": 1
  },
  {
   "fieldname": "stock_qty",
   "fieldtype": "Float",
   "label": "Qty as per Stock UOM",
   "oldfieldname": "stock_qty",
   "oldfieldtype": "Currency",
   "print_hide": 1,
   "print_width": "100px",
   "read_only": 1,
   "width": "100px"
  },
  {
   "fieldname": "section_break_45",
   "fieldtype": "Section Break"
  },
  {
   "depends_on": "eval:!doc.is_fixed_asset",
   "fieldname": "serial_no",
   "fieldtype": "Small Text",
   "in_list_view": 1,
   "label": "Serial No",
   "no_copy": 1,
   "oldfieldname": "serial_no",
   "oldfieldtype": "Text"
  },
  {
   "depends_on": "eval:!doc.is_fixed_asset",
   "fieldname": "batch_no",
   "fieldtype": "Link",
   "in_list_view": 1,
   "label": "Batch No",
   "no_copy": 1,
   "oldfieldname": "batch_no",
   "oldfieldtype": "Link",
   "options": "Batch",
   "print_hide": 1
  },
  {
   "fieldname": "column_break_48",
   "fieldtype": "Column Break"
  },
  {
   "depends_on": "eval:!doc.is_fixed_asset",
   "fieldname": "rejected_serial_no",
   "fieldtype": "Small Text",
   "label": "Rejected Serial No",
   "no_copy": 1,
   "print_hide": 1
  },
  {
   "fieldname": "item_tax_template",
   "fieldtype": "Link",
   "label": "Item Tax Template",
   "options": "Item Tax Template",
   "print_hide": 1
  },
  {
   "fieldname": "project",
   "fieldtype": "Link",
   "label": "Project",
   "options": "Project",
   "print_hide": 1
  },
  {
   "default": ":Company",
   "depends_on": "eval:cint(erpnext.is_perpetual_inventory_enabled(parent.company))",
   "fieldname": "cost_center",
   "fieldtype": "Link",
   "label": "Cost Center",
   "options": "Cost Center",
   "print_hide": 1
  },
  {
   "fieldname": "purchase_order_item",
   "fieldtype": "Data",
   "hidden": 1,
   "label": "Purchase Order Item",
   "no_copy": 1,
   "oldfieldname": "prevdoc_detail_docname",
   "oldfieldtype": "Data",
   "print_hide": 1,
   "print_width": "150px",
   "read_only": 1,
   "search_index": 1,
   "width": "150px"
  },
  {
   "fieldname": "col_break5",
   "fieldtype": "Column Break"
  },
  {
   "default": "0",
   "fieldname": "allow_zero_valuation_rate",
   "fieldtype": "Check",
   "label": "Allow Zero Valuation Rate",
   "no_copy": 1,
   "print_hide": 1
  },
  {
   "fieldname": "bom",
   "fieldtype": "Link",
   "label": "BOM",
   "no_copy": 1,
   "options": "BOM",
   "print_hide": 1
  },
  {
   "default": "0",
   "depends_on": "eval:parent.is_subcontracted == 'Yes'",
   "fieldname": "include_exploded_items",
   "fieldtype": "Check",
   "label": "Include Exploded Items",
   "print_hide": 1,
   "read_only": 1
  },
  {
   "fieldname": "billed_amt",
   "fieldtype": "Currency",
   "label": "Billed Amt",
   "no_copy": 1,
   "options": "currency",
   "print_hide": 1,
   "read_only": 1
  },
  {
   "allow_on_submit": 1,
   "fieldname": "landed_cost_voucher_amount",
   "fieldtype": "Currency",
   "label": "Landed Cost Voucher Amount",
   "no_copy": 1,
   "options": "Company:company:default_currency",
   "print_hide": 1,
   "read_only": 1
  },
  {
   "fieldname": "brand",
   "fieldtype": "Link",
   "hidden": 1,
   "label": "Brand",
   "oldfieldname": "brand",
   "oldfieldtype": "Link",
   "options": "Brand",
   "print_hide": 1,
   "read_only": 1
  },
  {
   "fieldname": "item_group",
   "fieldtype": "Link",
   "hidden": 1,
   "label": "Item Group",
   "oldfieldname": "item_group",
   "oldfieldtype": "Link",
   "options": "Item Group",
   "print_hide": 1,
   "read_only": 1
  },
  {
   "fieldname": "rm_supp_cost",
   "fieldtype": "Currency",
   "hidden": 1,
   "label": "Raw Materials Supplied Cost",
   "no_copy": 1,
   "oldfieldname": "rm_supp_cost",
   "oldfieldtype": "Currency",
   "options": "Company:company:default_currency",
   "print_hide": 1,
   "print_width": "150px",
   "read_only": 1,
   "width": "150px"
  },
  {
   "fieldname": "item_tax_amount",
   "fieldtype": "Currency",
   "hidden": 1,
   "label": "Item Tax Amount Included in Value",
   "no_copy": 1,
   "oldfieldname": "item_tax_amount",
   "oldfieldtype": "Currency",
   "options": "Company:company:default_currency",
   "print_hide": 1,
   "print_width": "150px",
   "read_only": 1,
   "width": "150px"
  },
  {
   "allow_on_submit": 1,
   "fieldname": "valuation_rate",
   "fieldtype": "Currency",
   "hidden": 1,
   "label": "Valuation Rate",
   "no_copy": 1,
   "oldfieldname": "valuation_rate",
   "oldfieldtype": "Currency",
   "options": "Company:company:default_currency",
   "print_hide": 1,
   "print_width": "80px",
   "read_only": 1,
   "width": "80px"
  },
  {
   "description": "Tax detail table fetched from item master as a string and stored in this field.\nUsed for Taxes and Charges",
   "fieldname": "item_tax_rate",
   "fieldtype": "Code",
   "hidden": 1,
   "label": "Item Tax Rate",
   "oldfieldname": "item_tax_rate",
   "oldfieldtype": "Small Text",
   "print_hide": 1,
   "read_only": 1,
   "report_hide": 1
  },
  {
   "allow_on_submit": 1,
   "default": "0",
   "fieldname": "page_break",
   "fieldtype": "Check",
   "label": "Page Break",
   "oldfieldname": "page_break",
   "oldfieldtype": "Check",
   "print_hide": 1
  },
  {
   "fieldname": "section_break_80",
   "fieldtype": "Section Break"
  },
  {
   "collapsible": 1,
   "fieldname": "image_section",
   "fieldtype": "Section Break",
   "label": "Image"
  },
  {
   "fieldname": "material_request",
   "fieldtype": "Link",
   "label": "Material Request",
   "options": "Material Request"
  },
  {
   "fieldname": "material_request_item",
   "fieldtype": "Data",
   "label": "Material Request Item"
  },
  {
   "fieldname": "expense_account",
   "fieldtype": "Link",
   "hidden": 1,
   "label": "Expense Account",
   "options": "Account",
   "read_only": 1
  },
  {
   "fieldname": "accounting_dimensions_section",
   "fieldtype": "Section Break",
   "label": "Accounting Dimensions"
  },
  {
   "fieldname": "dimension_col_break",
   "fieldtype": "Column Break"
  },
  {
   "collapsible": 1,
   "fieldname": "manufacture_details",
   "fieldtype": "Section Break",
   "label": "Manufacture"
  },
  {
   "fieldname": "manufacturer",
   "fieldtype": "Link",
   "label": "Manufacturer",
   "options": "Manufacturer"
  },
  {
   "fieldname": "column_break_16",
   "fieldtype": "Column Break"
  },
  {
   "fieldname": "manufacturer_part_no",
   "fieldtype": "Data",
   "label": "Manufacturer Part Number"
  },
  {
   "depends_on": "is_fixed_asset",
   "fieldname": "asset_location",
   "fieldtype": "Link",
   "label": "Asset Location",
   "options": "Location"
  },
  {
   "depends_on": "is_fixed_asset",
   "fetch_from": "item_code.asset_category",
   "fieldname": "asset_category",
   "fieldtype": "Link",
   "in_preview": 1,
   "label": "Asset Category",
   "options": "Asset Category",
   "read_only": 1
  },
  {
   "fieldname": "from_warehouse",
   "fieldtype": "Link",
   "hidden": 1,
   "ignore_user_permissions": 1,
   "label": "Supplier Warehouse",
   "options": "Warehouse"
  }
 ],
 "idx": 1,
 "istable": 1,
 "links": [],
 "modified": "2020-04-16 12:25:55.773581",
 "modified_by": "Administrator",
 "module": "Stock",
 "name": "Purchase Receipt Item",
 "owner": "Administrator",
 "permissions": [],
 "quick_entry": 1,
 "sort_field": "modified",
 "sort_order": "DESC"
}