{
    "cards": [],
    "category": "Modules",
    "charts": [],
    "creation": "2020-03-12 14:47:51.166455",
    "developer_mode_only": 0,
    "disable_user_customization": 0,
    "docstatus": 0,
    "doctype": "Desk Page",
    "extends": "Settings",
    "extends_another_page": 1,
    "idx": 0,
    "is_standard": 1,
    "label": "Dokos Settings",
    "modified": "2020-04-01 11:28:51.400851",
    "modified_by": "Administrator",
    "module": "Setup",
    "name": "Dokos Settings",
    "owner": "Administrator",
    "pin_to_bottom": 0,
    "pin_to_top": 0,
    "shortcuts": [
     {
      "icon": "octicon octicon-rocket",
      "label": "Projects Settings",
      "link_to": "Projects Settings",
      "type": "DocType"
     },
     {
      "icon": "octicon octicon-repo",
      "label": "Accounts Settings",
      "link_to": "Accounts Settings",
      "type": "DocType"
     },
     {
      "icon": "octicon octicon-package",
      "label": "Stock Settings",
      "link_to": "Stock Settings",
      "type": "DocType"
     },
     {
      "icon": "octicon octicon-organization",
      "label": "HR Settings",
      "link_to": "HR Settings",
      "type": "DocType"
     },
     {
      "icon": "octicon octicon-tag",
      "label": "Selling Settings",
      "link_to": "Selling Settings",
      "type": "DocType"
     },
     {
      "icon": "octicon octicon-briefcase",
      "label": "Buying Settings",
      "link_to": "Buying Settings",
      "type": "DocType"
     },
     {
      "icon": "fa fa-life-ring",
      "label": "Support Settings",
      "link_to": "Support Settings",
      "type": "DocType"
     },
     {
      "icon": "fa fa-shopping-cart",
      "label": "Shopping Cart Settings",
      "link_to": "Shopping Cart Settings",
      "type": "DocType"
     },
     {
      "icon": "fa fa-globe",
      "label": "Portal Settings",
      "link_to": "Portal Settings",
      "type": "DocType"
     },
     {
      "icon": "octicon octicon-tools",
      "label": "Manufacturing Settings",
      "link_to": "Manufacturing Settings",
      "restrict_to_domain": "Manufacturing",
      "type": "DocType"
     },
     {
      "icon": "octicon octicon-mortar-board",
      "label": "Education Settings",
      "link_to": "Education Settings",
      "restrict_to_domain": "Education",
      "type": "DocType"
     },
     {
      "icon": "fa fa-bed",
      "label": "Hotel Settings",
      "link_to": "Hotel Settings",
      "restrict_to_domain": "Hospitality",
      "type": "DocType"
     },
     {
      "icon": "fa fa-heartbeat",
      "label": "Healthcare Settings",
      "link_to": "Healthcare Settings",
      "restrict_to_domain": "Healthcare",
      "type": "DocType"
     },
     {
      "icon": "fa fa-cog",
      "label": "Domain Settings",
      "link_to": "Domain Settings",
      "type": "DocType"
     }
    ]
   }